<?xml version="1.0" encoding="UTF-8" standalone="no"?>
<svg
   xmlns:dc="http://purl.org/dc/elements/1.1/"
   xmlns:cc="http://creativecommons.org/ns#"
   xmlns:rdf="http://www.w3.org/1999/02/22-rdf-syntax-ns#"
   xmlns:svg="http://www.w3.org/2000/svg"
   xmlns="http://www.w3.org/2000/svg"
   xmlns:sodipodi="http://sodipodi.sourceforge.net/DTD/sodipodi-0.dtd"
   xmlns:inkscape="http://www.inkscape.org/namespaces/inkscape"
   width="297mm"
   height="210mm"
   viewBox="0 0 297 210"
   version="1.1"
   id="svg8"
   inkscape:export-filename="C:\Users\marc\Rastergrafik.png"
   inkscape:export-xdpi="164.2"
   inkscape:export-ydpi="164.2"
   inkscape:version="1.0.2 (e86c870879, 2021-01-15, custom)"
   sodipodi:docname="zensur.svg">
  <defs
     id="defs2" />
  <sodipodi:namedview
     id="base"
     pagecolor="#ffffff"
     bordercolor="#666666"
     borderopacity="1.0"
     inkscape:pageopacity="0.0"
     inkscape:pageshadow="2"
     inkscape:zoom="0.35"
     inkscape:cx="138.20179"
     inkscape:cy="634.65233"
     inkscape:document-units="mm"
     inkscape:current-layer="layer1"
     inkscape:document-rotation="0"
     showgrid="false"
     inkscape:window-width="1920"
     inkscape:window-height="1017"
     inkscape:window-x="1912"
     inkscape:window-y="-8"
     inkscape:window-maximized="1" />
  <metadata
     id="metadata5">
    <rdf:RDF>
      <cc:Work
         rdf:about="">
        <dc:format>image/svg+xml</dc:format>
        <dc:type
           rdf:resource="http://purl.org/dc/dcmitype/StillImage" />
        <dc:title></dc:title>
      </cc:Work>
    </rdf:RDF>
  </metadata>
  <g
     inkscape:label="Ebene 1"
     inkscape:groupmode="layer"
     id="layer1">
    <rect
       style="fill:#ffffff;stroke:none;stroke-width:1.10053;stroke-linecap:round;stroke-linejoin:round"
       id="rect40"
       width="279.53439"
       height="157.2381"
       x="8.7328033"
       y="26.380951"
       inkscape:export-xdpi="174.46001"
       inkscape:export-ydpi="174.46001" />
    <text
       xml:space="preserve"
       style="font-style:normal;font-weight:normal;font-size:43.8401px;line-height:125%;font-family:sans-serif;letter-spacing:0px;word-spacing:0px;fill:#000000;fill-opacity:1;stroke:none;stroke-width:1.096px;stroke-linecap:butt;stroke-linejoin:miter;stroke-opacity:1"
       x="61.750977"
       y="120.66941"
       id="text12"
       inkscape:export-xdpi="174.46001"
       inkscape:export-ydpi="174.46001"><tspan
         sodipodi:role="line"
         id="tspan10"
         x="61.750977"
         y="120.66941"
         style="font-weight:bold;stroke-width:1.096px"><tspan
           style="fill:#808000"
           id="tspan22">Z</tspan><tspan
           style="fill:#008000"
           id="tspan16">e</tspan><tspan
           style="fill:#008080"
           id="tspan24">n</tspan><tspan
           style="fill:#ff7f2a"
           id="tspan18">s</tspan><tspan
           style="fill:#d40000"
           id="tspan14">u</tspan><tspan
           style="fill:#0000ff"
           id="tspan20">r</tspan></tspan></text>
  </g>
</svg>
